<?xml version="1.0" encoding="UTF-8" standalone="no"?>
<!-- Created with Inkscape (http://www.inkscape.org/) -->

<svg
   width="216.38582mm"
   height="100.72519mm"
   viewBox="0 0 216.38582 100.72519"
   version="1.1"
   id="svg5"
   inkscape:version="1.1.2 (b8e25be833, 2022-02-05)"
   sodipodi:docname="mode_config.svg"
   xmlns:inkscape="http://www.inkscape.org/namespaces/inkscape"
   xmlns:sodipodi="http://sodipodi.sourceforge.net/DTD/sodipodi-0.dtd"
   xmlns="http://www.w3.org/2000/svg"
   xmlns:svg="http://www.w3.org/2000/svg">
  <sodipodi:namedview
     id="namedview7"
     pagecolor="#ffffff"
     bordercolor="#666666"
     borderopacity="1.0"
     inkscape:pageshadow="2"
     inkscape:pageopacity="0.0"
     inkscape:pagecheckerboard="0"
     inkscape:document-units="mm"
     showgrid="false"
     inkscape:zoom="1.5039687"
     inkscape:cx="351.73604"
     inkscape:cy="190.16353"
     inkscape:window-width="1920"
     inkscape:window-height="1017"
     inkscape:window-x="-8"
     inkscape:window-y="-8"
     inkscape:window-maximized="1"
     inkscape:current-layer="layer1"
     fit-margin-top="0"
     fit-margin-left="0"
     fit-margin-right="0"
     fit-margin-bottom="0" />
  <defs
     id="defs2">
    <marker
       style="overflow:visible"
       id="Arrow1Sstart"
       refX="0"
       refY="0"
       orient="auto"
       inkscape:stockid="Arrow1Sstart"
       inkscape:isstock="true">
      <path
         transform="matrix(0.2,0,0,0.2,1.2,0)"
         style="fill:context-stroke;fill-rule:evenodd;stroke:context-stroke;stroke-width:1pt"
         d="M 0,0 5,-5 -12.5,0 5,5 Z"
         id="path6787" />
    </marker>
    <marker
       style="overflow:visible"
       id="Arrow1Send"
       refX="0"
       refY="0"
       orient="auto"
       inkscape:stockid="Arrow1Send"
       inkscape:isstock="true">
      <path
         transform="matrix(-0.2,0,0,-0.2,-1.2,0)"
         style="fill:context-stroke;fill-rule:evenodd;stroke:context-stroke;stroke-width:1pt"
         d="M 0,0 5,-5 -12.5,0 5,5 Z"
         id="path6790" />
    </marker>
    <marker
       style="overflow:visible"
       id="Arrow1Mend"
       refX="0"
       refY="0"
       orient="auto"
       inkscape:stockid="Arrow1Mend"
       inkscape:isstock="true">
      <path
         transform="matrix(-0.4,0,0,-0.4,-4,0)"
         style="fill:context-stroke;fill-rule:evenodd;stroke:context-stroke;stroke-width:1pt"
         d="M 0,0 5,-5 -12.5,0 5,5 Z"
         id="path6784" />
    </marker>
    <marker
       style="overflow:visible"
       id="Arrow1Mstart"
       refX="0"
       refY="0"
       orient="auto"
       inkscape:stockid="Arrow1Mstart"
       inkscape:isstock="true">
      <path
         transform="matrix(0.4,0,0,0.4,4,0)"
         style="fill:context-stroke;fill-rule:evenodd;stroke:context-stroke;stroke-width:1pt"
         d="M 0,0 5,-5 -12.5,0 5,5 Z"
         id="path6781" />
    </marker>
  </defs>
  <g
     inkscape:label="Layer 1"
     inkscape:groupmode="layer"
     id="layer1"
     transform="translate(-2.5108398,-48.775094)">
    <g
       id="g6720"
       transform="translate(-4.1307378)">
      <rect
         style="fill:#00a6a6;fill-opacity:1;stroke:#000000;stroke-width:0.264583;stroke-miterlimit:4;stroke-dasharray:none;stroke-dashoffset:0;stroke-opacity:1"
         id="rect843"
         width="63.200279"
         height="31.806675"
         x="22.719055"
         y="71.048676"
         rx="13.631433"
         ry="13.631433" />
      <text
         xml:space="preserve"
         style="font-style:normal;font-weight:normal;font-size:10.5833px;line-height:1.25;font-family:sans-serif;fill:#000000;fill-opacity:1;stroke:none;stroke-width:0.264583"
         x="28.770447"
         y="89.603004"
         id="text3545"><tspan
           sodipodi:role="line"
           id="tspan3543"
           style="stroke-width:0.264583"
           x="28.770447"
           y="89.603004">computer</tspan></text>
    </g>
    <g
       id="g6725"
       transform="translate(-8.2614628)">
      <rect
         style="fill:#00a650;fill-opacity:1;stroke:#000000;stroke-width:0.264583;stroke-miterlimit:4;stroke-dasharray:none;stroke-dashoffset:0;stroke-opacity:1"
         id="rect843-8"
         width="42.133526"
         height="31.806671"
         x="120.41098"
         y="71.048676"
         rx="13.631433"
         ry="13.631433" />
      <text
         xml:space="preserve"
         style="font-style:normal;font-weight:normal;font-size:10.5833px;line-height:1.25;font-family:sans-serif;fill:#000000;fill-opacity:1;stroke:none;stroke-width:0.264583"
         x="128.24861"
         y="90.892326"
         id="text3545-1"><tspan
           sodipodi:role="line"
           id="tspan3543-7"
           style="stroke-width:0.264583"
           x="128.24861"
           y="90.892326">node</tspan></text>
    </g>
    <g
       id="g6730"
       transform="translate(-52.460357,1.445755)">
      <rect
         style="fill:#d2a6a6;fill-opacity:1;stroke:#000000;stroke-width:0.264583;stroke-miterlimit:4;stroke-dasharray:none;stroke-dashoffset:0;stroke-opacity:1"
         id="rect843-5"
         width="47.090397"
         height="31.806671"
         x="206.74339"
         y="69.602921"
         rx="13.631433"
         ry="13.631433" />
      <text
         xml:space="preserve"
         style="font-style:normal;font-weight:normal;font-size:10.5833px;line-height:1.25;font-family:sans-serif;fill:#000000;fill-opacity:1;stroke:none;stroke-width:0.264583"
         x="212.49904"
         y="88.392372"
         id="text3545-2"><tspan
           sodipodi:role="line"
           id="tspan3543-3"
           style="stroke-width:0.264583"
           x="212.49904"
           y="88.392372">sensor</tspan></text>
    </g>
    <g
       id="g6738"
       transform="translate(-52.460357,33.252426)">
      <rect
         style="fill:#d2a6a6;fill-opacity:1;stroke:#000000;stroke-width:0.264583;stroke-miterlimit:4;stroke-dasharray:none;stroke-dashoffset:0;stroke-opacity:1"
         id="rect6732"
         width="47.090397"
         height="31.806671"
         x="206.74339"
         y="69.602921"
         rx="13.631433"
         ry="13.631433" />
      <text
         xml:space="preserve"
         style="font-style:normal;font-weight:normal;font-size:10.5833px;line-height:1.25;font-family:sans-serif;fill:#000000;fill-opacity:1;stroke:none;stroke-width:0.264583"
         x="212.49904"
         y="88.392372"
         id="text6736"><tspan
           sodipodi:role="line"
           id="tspan6734"
           style="stroke-width:0.264583"
           x="212.49904"
           y="88.392372">sensor</tspan></text>
    </g>
    <g
       id="g2301">
      <path
         style="fill:none;stroke:#000000;stroke-width:1.5875;stroke-linecap:butt;stroke-linejoin:miter;stroke-miterlimit:4;stroke-dasharray:none;stroke-opacity:1"
         d="M 85.609529,86.952012 H 108.32858"
         id="path6773" />
      <text
         xml:space="preserve"
         style="font-style:normal;font-weight:normal;font-size:10.5833px;line-height:1.25;font-family:sans-serif;fill:#000000;fill-opacity:1;stroke:none;stroke-width:0.264583"
         x="88.103996"
         y="83.440887"
         id="text7435"><tspan
           sodipodi:role="line"
           id="tspan7433"
           style="stroke-width:0.264583"
           x="88.103996"
           y="83.440887">wifi</tspan></text>
    </g>
    <text
       xml:space="preserve"
       style="font-style:normal;font-weight:normal;font-size:10.5833px;line-height:1.25;font-family:sans-serif;fill:#000000;fill-opacity:1;stroke:none;stroke-width:0.264583"
       x="116.24837"
       y="68.830368"
       id="text1479"><tspan
         sodipodi:role="line"
         id="tspan1477"
         style="stroke-width:0.264583"
         x="116.24837"
         y="68.830368">server</tspan></text>
    <text
       xml:space="preserve"
       style="font-style:normal;font-weight:normal;font-size:10.5833px;line-height:1.25;font-family:sans-serif;fill:#000000;fill-opacity:1;stroke:none;stroke-width:0.264583"
       x="35.77853"
       y="68.835533"
       id="text2209"><tspan
         sodipodi:role="line"
         id="tspan2207"
         style="stroke-width:0.264583"
         x="35.77853"
         y="68.835533">client</tspan></text>
  </g>
</svg>
