(kicad_symbol_lib (version 20211014) (generator kicad_symbol_editor)
  (symbol "BMP180" (in_bom yes) (on_board yes)
    (property "Reference" "U" (id 0) (at -7.62 10.16 0)
      (effects (font (size 1.27 1.27)) (justify left top))
    )
    (property "Value" "BMP180" (id 1) (at 0 10.16 0)
      (effects (font (size 1.27 1.27)) (justify left top))
    )
    (property "Footprint" "sensor:bmp180_board" (id 2) (at 0 -17.78 0)
      (effects (font (size 1.27 1.27)) hide)
    )
    (property "Datasheet" "" (id 3) (at 0 0 0)
      (effects (font (size 1.27 1.27)) hide)
    )
    (property "ki_keywords" "I2C, SPI, pressure, temperature, sensor" (id 4) (at 0 0 0)
      (effects (font (size 1.27 1.27)) hide)
    )
    (property "ki_description" "Absolute Barometric Pressure Sensor, LGA-8" (id 5) (at 0 0 0)
      (effects (font (size 1.27 1.27)) hide)
    )
    (property "ki_fp_filters" "Bosch*LGA*2x2.5mm*P0.65mm*" (id 6) (at 0 0 0)
      (effects (font (size 1.27 1.27)) hide)
    )
    (symbol "BMP180_0_1"
      (rectangle (start -7.62 -5.08) (end 5.08 7.62)
        (stroke (width 0.254) (type default) (color 0 0 0 0))
        (fill (type background))
      )
    )
    (symbol "BMP180_1_1"
      (pin power_in line (at -5.08 -7.62 90) (length 2.54)
        (name "Vin" (effects (font (size 1.27 1.27))))
        (number "1" (effects (font (size 1.27 1.27))))
      )
      (pin power_in line (at -2.54 -7.62 90) (length 2.54)
        (name "GND" (effects (font (size 1.27 1.27))))
        (number "2" (effects (font (size 1.27 1.27))))
      )
      (pin input line (at 0 -7.62 90) (length 2.54)
        (name "SCL" (effects (font (size 1.27 1.27))))
        (number "3" (effects (font (size 1.27 1.27))))
      )
      (pin bidirectional line (at 2.54 -7.62 90) (length 2.54)
        (name "SDA" (effects (font (size 1.27 1.27))))
        (number "4" (effects (font (size 1.27 1.27))))
      )
    )
  )
  (symbol "CCS801_board" (in_bom yes) (on_board yes)
    (property "Reference" "U" (id 0) (at 2.54 7.62 0)
      (effects (font (size 1.27 1.27)))
    )
    (property "Value" "CCS801_board" (id 1) (at 0 15.24 0)
      (effects (font (size 1.27 1.27)))
    )
    (property "Footprint" "sensor:ccs801_board" (id 2) (at 7.62 -2.54 0)
      (effects (font (size 1.27 1.27)) hide)
    )
    (property "Datasheet" "" (id 3) (at 0 0 0)
      (effects (font (size 1.27 1.27)) hide)
    )
    (symbol "CCS801_board_0_1"
      (rectangle (start -7.62 12.7) (end 10.16 -10.16)
        (stroke (width 0.1524) (type default) (color 0 0 0 0))
        (fill (type background))
      )
    )
    (symbol "CCS801_board_1_1"
      (pin power_in line (at -10.16 10.16 0) (length 2.54)
        (name "vcc" (effects (font (size 1.27 1.27))))
        (number "1" (effects (font (size 1.27 1.27))))
      )
      (pin power_in line (at -10.16 7.62 0) (length 2.54)
        (name "gnd" (effects (font (size 1.27 1.27))))
        (number "2" (effects (font (size 1.27 1.27))))
      )
      (pin input line (at -10.16 5.08 0) (length 2.54)
        (name "scl" (effects (font (size 1.27 1.27))))
        (number "3" (effects (font (size 1.27 1.27))))
      )
      (pin bidirectional line (at -10.16 2.54 0) (length 2.54)
        (name "sda" (effects (font (size 1.27 1.27))))
        (number "4" (effects (font (size 1.27 1.27))))
      )
      (pin input line (at -10.16 0 0) (length 2.54)
        (name "wak" (effects (font (size 1.27 1.27))))
        (number "5" (effects (font (size 1.27 1.27))))
      )
      (pin input line (at -10.16 -2.54 0) (length 2.54)
        (name "int" (effects (font (size 1.27 1.27))))
        (number "6" (effects (font (size 1.27 1.27))))
      )
      (pin input line (at -10.16 -5.08 0) (length 2.54)
        (name "rst" (effects (font (size 1.27 1.27))))
        (number "7" (effects (font (size 1.27 1.27))))
      )
      (pin input line (at -10.16 -7.62 0) (length 2.54)
        (name "add" (effects (font (size 1.27 1.27))))
        (number "8" (effects (font (size 1.27 1.27))))
      )
    )
  )
  (symbol "DS18B20" (pin_names (offset 1.016)) (in_bom yes) (on_board yes)
    (property "Reference" "U" (id 0) (at -3.81 6.35 0)
      (effects (font (size 1.27 1.27)))
    )
    (property "Value" "DS18B20" (id 1) (at 6.35 6.35 0)
      (effects (font (size 1.27 1.27)))
    )
    (property "Footprint" "sensor:ds18b20_wire" (id 2) (at -25.4 -6.35 0)
      (effects (font (size 1.27 1.27)) hide)
    )
    (property "Datasheet" "http://datasheets.maximintegrated.com/en/ds/DS18B20.pdf" (id 3) (at -3.81 6.35 0)
      (effects (font (size 1.27 1.27)) hide)
    )
    (property "ki_keywords" "OneWire 1Wire Dallas Maxim" (id 4) (at 0 0 0)
      (effects (font (size 1.27 1.27)) hide)
    )
    (property "ki_description" "Programmable Resolution 1-Wire Digital Thermometer TO-92" (id 5) (at 0 0 0)
      (effects (font (size 1.27 1.27)) hide)
    )
    (property "ki_fp_filters" "TO*92*" (id 6) (at 0 0 0)
      (effects (font (size 1.27 1.27)) hide)
    )
    (symbol "DS18B20_0_1"
      (rectangle (start -5.08 5.08) (end 5.08 -5.08)
        (stroke (width 0.254) (type default) (color 0 0 0 0))
        (fill (type background))
      )
      (circle (center -3.302 -2.54) (radius 1.27)
        (stroke (width 0.254) (type default) (color 0 0 0 0))
        (fill (type outline))
      )
      (rectangle (start -2.667 -1.905) (end -3.937 0)
        (stroke (width 0.254) (type default) (color 0 0 0 0))
        (fill (type outline))
      )
      (arc (start -2.667 3.175) (mid -3.302 3.81) (end -3.937 3.175)
        (stroke (width 0.254) (type default) (color 0 0 0 0))
        (fill (type none))
      )
      (polyline
        (pts
          (xy -3.937 0.635)
          (xy -3.302 0.635)
        )
        (stroke (width 0.254) (type default) (color 0 0 0 0))
        (fill (type none))
      )
      (polyline
        (pts
          (xy -3.937 1.27)
          (xy -3.302 1.27)
        )
        (stroke (width 0.254) (type default) (color 0 0 0 0))
        (fill (type none))
      )
      (polyline
        (pts
          (xy -3.937 1.905)
          (xy -3.302 1.905)
        )
        (stroke (width 0.254) (type default) (color 0 0 0 0))
        (fill (type none))
      )
      (polyline
        (pts
          (xy -3.937 2.54)
          (xy -3.302 2.54)
        )
        (stroke (width 0.254) (type default) (color 0 0 0 0))
        (fill (type none))
      )
      (polyline
        (pts
          (xy -3.937 3.175)
          (xy -3.937 0)
        )
        (stroke (width 0.254) (type default) (color 0 0 0 0))
        (fill (type none))
      )
      (polyline
        (pts
          (xy -3.937 3.175)
          (xy -3.302 3.175)
        )
        (stroke (width 0.254) (type default) (color 0 0 0 0))
        (fill (type none))
      )
      (polyline
        (pts
          (xy -2.667 3.175)
          (xy -2.667 0)
        )
        (stroke (width 0.254) (type default) (color 0 0 0 0))
        (fill (type none))
      )
    )
    (symbol "DS18B20_1_1"
      (pin power_in line (at 0 -7.62 90) (length 2.54)
        (name "GND" (effects (font (size 1.27 1.27))))
        (number "1" (effects (font (size 1.27 1.27))))
      )
      (pin bidirectional line (at 7.62 0 180) (length 2.54)
        (name "DQ" (effects (font (size 1.27 1.27))))
        (number "2" (effects (font (size 1.27 1.27))))
      )
      (pin power_in line (at 0 7.62 270) (length 2.54)
        (name "VDD" (effects (font (size 1.27 1.27))))
        (number "3" (effects (font (size 1.27 1.27))))
      )
    )
  )
  (symbol "INA219_board" (in_bom yes) (on_board yes)
    (property "Reference" "U" (id 0) (at -6.35 8.89 0)
      (effects (font (size 1.27 1.27)))
    )
    (property "Value" "INA219_board" (id 1) (at 5.08 8.89 0)
      (effects (font (size 1.27 1.27)))
    )
    (property "Footprint" "sensor:ina219_board" (id 2) (at 20.32 -8.89 0)
      (effects (font (size 1.27 1.27)) hide)
    )
    (property "Datasheet" "" (id 3) (at 8.89 -2.54 0)
      (effects (font (size 1.27 1.27)) hide)
    )
    (property "ki_keywords" "ADC I2C 16-Bit Oversampling Current Shunt" (id 4) (at 0 0 0)
      (effects (font (size 1.27 1.27)) hide)
    )
    (property "ki_description" "Zero-Drift, Bidirectional Current/Power Monitor (0-26V) With I2C Interface, GY219" (id 5) (at 0 0 0)
      (effects (font (size 1.27 1.27)) hide)
    )
    (property "ki_fp_filters" "SOIC*3.9x4.9mm*P1.27mm*" (id 6) (at 0 0 0)
      (effects (font (size 1.27 1.27)) hide)
    )
    (symbol "INA219_board_0_1"
      (rectangle (start -7.62 7.62) (end 7.62 -7.62)
        (stroke (width 0.254) (type default) (color 0 0 0 0))
        (fill (type background))
      )
    )
    (symbol "INA219_board_1_1"
      (pin power_in line (at -5.08 -10.16 90) (length 2.54)
        (name "vcc" (effects (font (size 1.27 1.27))))
        (number "1" (effects (font (size 1.27 1.27))))
      )
      (pin power_in line (at -2.54 -10.16 90) (length 2.54)
        (name "gnd" (effects (font (size 1.27 1.27))))
        (number "2" (effects (font (size 1.27 1.27))))
      )
      (pin input line (at 0 -10.16 90) (length 2.54)
        (name "scl" (effects (font (size 1.27 1.27))))
        (number "3" (effects (font (size 1.27 1.27))))
      )
      (pin bidirectional line (at 2.54 -10.16 90) (length 2.54)
        (name "sda" (effects (font (size 1.27 1.27))))
        (number "4" (effects (font (size 1.27 1.27))))
      )
      (pin input line (at 10.16 -2.54 180) (length 2.54)
        (name "vin-" (effects (font (size 1.27 1.27))))
        (number "5" (effects (font (size 1.27 1.27))))
      )
      (pin input line (at 10.16 2.54 180) (length 2.54)
        (name "vin+" (effects (font (size 1.27 1.27))))
        (number "6" (effects (font (size 1.27 1.27))))
      )
      (pin no_connect line (at -10.16 -2.54 0) (length 2.54)
        (name "vin-" (effects (font (size 1.27 1.27))))
        (number "7" (effects (font (size 1.27 1.27))))
      )
      (pin no_connect line (at -10.16 2.54 0) (length 2.54)
        (name "vin+" (effects (font (size 1.27 1.27))))
        (number "8" (effects (font (size 1.27 1.27))))
      )
    )
  )
  (symbol "Si7021-A20" (in_bom yes) (on_board yes)
    (property "Reference" "U" (id 0) (at -5.08 7.62 0)
      (effects (font (size 1.27 1.27)))
    )
    (property "Value" "Si7021-A20" (id 1) (at -10.16 10.16 0)
      (effects (font (size 1.27 1.27)))
    )
    (property "Footprint" "Package_DFN_QFN:DFN-6-1EP_3x3mm_P1mm_EP1.5x2.4mm" (id 2) (at 0 -10.16 0)
      (effects (font (size 1.27 1.27)) hide)
    )
    (property "Datasheet" "https://www.silabs.com/documents/public/data-sheets/Si7021-A20.pdf" (id 3) (at -5.08 7.62 0)
      (effects (font (size 1.27 1.27)) hide)
    )
    (property "ki_keywords" "I2C Humidity Temperature Sensor" (id 4) (at 0 0 0)
      (effects (font (size 1.27 1.27)) hide)
    )
    (property "ki_description" "I2C Humidity and Temperature Sensor, DFN-6" (id 5) (at 0 0 0)
      (effects (font (size 1.27 1.27)) hide)
    )
    (property "ki_fp_filters" "DFN*1EP*3x3mm*P1mm*" (id 6) (at 0 0 0)
      (effects (font (size 1.27 1.27)) hide)
    )
    (symbol "Si7021-A20_0_1"
      (rectangle (start -10.16 5.08) (end 10.16 -5.08)
        (stroke (width 0.254) (type default) (color 0 0 0 0))
        (fill (type background))
      )
    )
    (symbol "Si7021-A20_1_1"
      (pin bidirectional line (at -12.7 2.54 0) (length 2.54)
        (name "SDA" (effects (font (size 1.27 1.27))))
        (number "1" (effects (font (size 1.27 1.27))))
      )
      (pin power_in line (at -2.54 -7.62 90) (length 2.54)
        (name "GND" (effects (font (size 1.27 1.27))))
        (number "2" (effects (font (size 1.27 1.27))))
      )
      (pin no_connect line (at 10.16 2.54 180) (length 2.54) hide
        (name "NC" (effects (font (size 1.27 1.27))))
        (number "3" (effects (font (size 1.27 1.27))))
      )
      (pin no_connect line (at 10.16 -2.54 180) (length 2.54) hide
        (name "NC" (effects (font (size 1.27 1.27))))
        (number "4" (effects (font (size 1.27 1.27))))
      )
      (pin power_in line (at 0 7.62 270) (length 2.54)
        (name "VDD" (effects (font (size 1.27 1.27))))
        (number "5" (effects (font (size 1.27 1.27))))
      )
      (pin input line (at -12.7 -2.54 0) (length 2.54)
        (name "SCL" (effects (font (size 1.27 1.27))))
        (number "6" (effects (font (size 1.27 1.27))))
      )
      (pin passive line (at 2.54 -7.62 90) (length 2.54)
        (name "PAD" (effects (font (size 1.27 1.27))))
        (number "7" (effects (font (size 1.27 1.27))))
      )
    )
  )
  (symbol "am2322" (in_bom yes) (on_board yes)
    (property "Reference" "U" (id 0) (at 2.54 -3.81 0)
      (effects (font (size 1.27 1.27)))
    )
    (property "Value" "am2322" (id 1) (at 2.54 5.08 0)
      (effects (font (size 1.27 1.27)))
    )
    (property "Footprint" "sensor:am2322" (id 2) (at 1.27 -5.08 0)
      (effects (font (size 1.27 1.27)) hide)
    )
    (property "Datasheet" "" (id 3) (at 1.27 -5.08 0)
      (effects (font (size 1.27 1.27)) hide)
    )
    (symbol "am2322_0_1"
      (rectangle (start -3.81 3.81) (end 6.35 -2.54)
        (stroke (width 0.1524) (type default) (color 0 0 0 0))
        (fill (type background))
      )
    )
    (symbol "am2322_1_1"
      (pin power_in line (at -6.35 2.54 0) (length 2.54)
        (name "vdd" (effects (font (size 1.27 1.27))))
        (number "1" (effects (font (size 1.27 1.27))))
      )
      (pin bidirectional line (at -6.35 1.27 0) (length 2.54)
        (name "sda" (effects (font (size 1.27 1.27))))
        (number "2" (effects (font (size 1.27 1.27))))
      )
      (pin power_in line (at -6.35 0 0) (length 2.54)
        (name "gnd" (effects (font (size 1.27 1.27))))
        (number "3" (effects (font (size 1.27 1.27))))
      )
      (pin input line (at -6.35 -1.27 0) (length 2.54)
        (name "scl" (effects (font (size 1.27 1.27))))
        (number "4" (effects (font (size 1.27 1.27))))
      )
    )
  )
  (symbol "light_dual_set" (in_bom yes) (on_board yes)
    (property "Reference" "U" (id 0) (at 3.81 5.08 0)
      (effects (font (size 1.27 1.27)))
    )
    (property "Value" "light_dual_set" (id 1) (at -3.81 5.08 0)
      (effects (font (size 1.27 1.27)))
    )
    (property "Footprint" "connector:DIN4" (id 2) (at -1.27 6.35 0)
      (effects (font (size 1.27 1.27)) hide)
    )
    (property "Datasheet" "" (id 3) (at -1.27 6.35 0)
      (effects (font (size 1.27 1.27)) hide)
    )
    (symbol "light_dual_set_0_1"
      (rectangle (start -3.81 3.81) (end 2.54 -6.35)
        (stroke (width 0.1524) (type default) (color 0 0 0 0))
        (fill (type none))
      )
    )
    (symbol "light_dual_set_1_1"
      (pin power_out line (at -6.35 2.54 0) (length 2.54)
        (name "V+1" (effects (font (size 1.27 1.27))))
        (number "1" (effects (font (size 1.27 1.27))))
      )
      (pin power_out line (at -6.35 0 0) (length 2.54)
        (name "V-1" (effects (font (size 1.27 1.27))))
        (number "2" (effects (font (size 1.27 1.27))))
      )
      (pin power_out line (at -6.35 -2.54 0) (length 2.54)
        (name "V+2" (effects (font (size 1.27 1.27))))
        (number "3" (effects (font (size 1.27 1.27))))
      )
      (pin power_out line (at -6.35 -5.08 0) (length 2.54)
        (name "V-2" (effects (font (size 1.27 1.27))))
        (number "4" (effects (font (size 1.27 1.27))))
      )
    )
  )
  (symbol "mhz19b" (in_bom yes) (on_board yes)
    (property "Reference" "U" (id 0) (at -1.27 -8.89 0)
      (effects (font (size 1.27 1.27)))
    )
    (property "Value" "mhz19b" (id 1) (at 0 8.89 0)
      (effects (font (size 1.27 1.27)))
    )
    (property "Footprint" "sensor:mhz19b" (id 2) (at -1.27 -10.16 0)
      (effects (font (size 1.27 1.27)) hide)
    )
    (property "Datasheet" "" (id 3) (at -1.27 -5.08 0)
      (effects (font (size 1.27 1.27)) hide)
    )
    (symbol "mhz19b_0_1"
      (rectangle (start -6.35 7.62) (end 5.08 -7.62)
        (stroke (width 0.1524) (type default) (color 0 0 0 0))
        (fill (type background))
      )
    )
    (symbol "mhz19b_1_1"
      (pin input line (at -8.89 5.08 0) (length 2.54)
        (name "hd" (effects (font (size 1.27 1.27))))
        (number "1" (effects (font (size 1.27 1.27))))
      )
      (pin no_connect line (at -8.89 2.54 0) (length 2.54)
        (name "sr" (effects (font (size 1.27 1.27))))
        (number "2" (effects (font (size 1.27 1.27))))
      )
      (pin output line (at -8.89 0 0) (length 2.54)
        (name "tx" (effects (font (size 1.27 1.27))))
        (number "3" (effects (font (size 1.27 1.27))))
      )
      (pin input line (at -8.89 -2.54 0) (length 2.54)
        (name "rx" (effects (font (size 1.27 1.27))))
        (number "4" (effects (font (size 1.27 1.27))))
      )
      (pin no_connect line (at -8.89 -5.08 0) (length 2.54)
        (name "vo" (effects (font (size 1.27 1.27))))
        (number "5" (effects (font (size 1.27 1.27))))
      )
      (pin input line (at 7.62 2.54 180) (length 2.54)
        (name "pwm" (effects (font (size 1.27 1.27))))
        (number "6" (effects (font (size 1.27 1.27))))
      )
      (pin no_connect line (at 7.62 0 180) (length 2.54)
        (name "aot" (effects (font (size 1.27 1.27))))
        (number "7" (effects (font (size 1.27 1.27))))
      )
      (pin power_in line (at 7.62 -2.54 180) (length 2.54)
        (name "gnd" (effects (font (size 1.27 1.27))))
        (number "8" (effects (font (size 1.27 1.27))))
      )
      (pin power_in line (at 7.62 -5.08 180) (length 2.54)
        (name "vin" (effects (font (size 1.27 1.27))))
        (number "9" (effects (font (size 1.27 1.27))))
      )
    )
  )
)
