{
  "measure": {
    "interval": 30
  },
  "mode_espnow": {
    "gateway": [
      200,
      201,
      163,
      100,
      222,
      51
    ]
  },
  "mode_lora": {},
  "mode_wifi": {
    "server_ip": [
      10,
      3,
      141,
      1
    ]
  }
}