{
  "_pkglts": {
    "auto_install": true,
    "install_front_end": "stdout",
    "use_prompts": false,
    "version": 15
  },
  "base": {
    "authors": [
      [
        "revesansparole",
        "revesansparole@gmail.com"
      ]
    ],
    "namespace": null,
    "pkgname": "ecosensornet",
    "url": "https://gitlab.com/revesansparole/ecosensornet"
  },
  "doc": {
    "description": "Network of sensors for ecology agronomy",
    "fmt": "rst",
    "keywords": []
  },
  "license": {
    "name": "cc_by_nc",
    "organization": "revesansparole",
    "project": "{{ base.pkgname }}",
    "year": 2021
  },
  "pysetup": {
    "intended_versions": [
      "39"
    ]
  },
  "reqs": {
    "require": [
      {
        "intent": [
          "script"
        ],
        "name": "pandas"
      }
    ]
  },
  "sphinx": {
    "autodoc_dvlpt": true,
    "build_dir": "build/sphinx",
    "doc_dir": "doc",
    "gallery": "",
    "theme": "default"
  },
  "src": {
    "namespace_method": "pkg_util"
  },
  "test": {
    "suite_name": "pytest"
  },
  "version": {
    "major": 0,
    "minor": 0,
    "post": 1
  }
}