{
  "AUTHORS.rst": {
    "doc.authors": "/4DdVJ8b3rG94lfO9Lc7StWASvDQpuf73AL4vpQmxvi4N9ShPsMeP3Shwf6i2d3e4dvIUgDW1Mc0vUxg5LkbUw==",
    "doc.contributors": "Ac1xHbB5q5mQmhiYDeN4wlY1XcXX+3z2O7Y14J0R8PshAShZ7fH6eusQDc1eMXM1tgKvDvo+lZMEc+Ondw9kiw=="
  },
  "CONTRIBUTING.rst": {},
  "HISTORY.rst": {},
  "LICENSE": {
    "license": "8T8OUqjlQha1L2WVIjMnlAuMC7QSOZ/Cft/ojnd+BkyKsbdSw6DAbXk1TlI6UvA8A23PQAb98UcVdMqO+ENkiw=="
  },
  "MANIFEST.in": {
    "pysetup": "8DY56AGZWMjTMdLoLpVQZN3oQQOtMMHvIbv478ScAZGV//KX41S578YS9bOPTa1qN+gqb0sfemd4JL1sICcZNg=="
  },
  "README.rst": {
    "doc": "vmiIOMqGhuXJBom/KrWFzvETfJmbSMcLkvZ6XDTcFWl7XRHJgu1tcb4eHn97TgcziEqpfD96M5qO0DV3z3S+CQ=="
  },
  "doc/Makefile": {
    "sphinx": "EsaaEppe6Kw79WHpUyBigedrIraP6YlQDBg9Fu6jue32Rt6mCQkk2zH7gfOVqjT5bNpnXN90UfLkrzHVJCo6UQ=="
  },
  "doc/_static/nonempty.txt": {},
  "doc/conf.py": {
    "sphinx": "S5Mdf0JZqjZ5HdKgddlV20c8ygxVLhy3bryI+Z+gjRKWrKs1SCAKjdHdA6CzxqwY68BtqCnC0cn1x6dz8AuTGQ=="
  },
  "doc/make.bat": {
    "sphinx": "E9sFsnXAm9uPYBn7f0Qb6edct0UKizsXRIJyjZISRCjHbT2HldXK4GIj1yO69R/OVSfnmdAX5lzXQ4wONQNFgA=="
  },
  "requirements.txt": {
    "reqs": "fBtEEiA/93gBs6d8vruYr/pJdKChNytjzCQUwoNBYGpL5bxDwR+cn0lJLweEbd/A6z5IsiQvsdc2CAYelAe+EA=="
  },
  "requirements_minimal.txt": {
    "reqs": "AWuoxM/eZa+Zy1+ouKN+Lrc/SBs640mRZm3y4E/rbAOGZuvR7CtvYjlndWAzxwLd5fQj99R6tu0YJ/9TeDcx9w=="
  },
  "setup.cfg": {
    "sphinx": "mYLeHXWNqXwTk9eWxY4wTrltnDTrAHQvl0l+kosuIfAgrbAuhWMgySq4WR2Y855Q5HDAtGZY7Pnt+BAU6niXIg==",
    "test.nose": "vmiIOMqGhuXJBom/KrWFzvETfJmbSMcLkvZ6XDTcFWl7XRHJgu1tcb4eHn97TgcziEqpfD96M5qO0DV3z3S+CQ==",
    "test.pytest": "R5P5XMaQxSXsNQJ3hXYY45iLvnl8Mbec6XuIaFTum52gym+wTM2TfEbW/N2doHNaCkpdAWg07oblbYi15AwQkA==",
    "wheel": "vUJZkCvbK4LQuEURneKnX/SNIwhJ9/9EaT5T6Uw1K1fauKFFiHnq1DTDES7cgBD0OANelyvwCCZO/rV4Iok+ag=="
  },
  "setup.py": {
    "pysetup.call": "t30iIuCMd/sWxStR2XNYb8bCBgwanhKt8YYn2VKACyAqL5cKFRUWpVRIpAR+uxXUZ9PYYy2csMmECcONnRZE8w==",
    "pysetup.kwds": "aMPThAro9rKPmqzxOeOYrJncNHiQN9iG4+7pwAFVwCgdIr6sJMA8E5Xfkgolmb2W9lN9a4Sz+czVVF/NhItmlw=="
  },
  "src/ecosensornet/__init__.py": {
    "src": "L2dZgUBRC5qv3o09+1CbMcgYfQtR1ZNSvP8KlP8REQazZiAQAktALjpCC2ijdxvKPv/tN9KsZrzNW+lZMszSfg==",
    "version": "skSCnavrYKIlfN9Mpi+cANbU8gXulaKdlHryvkjkoSSpsag1I66dM+6JHm1aOdmKYU0rZNNgcIamCMbIL7IeMg=="
  },
  "src/ecosensornet/version.py": {
    "version": "ru2OHOwItRZYHFrgU5Y54fYS+8TRo6U+81AYdqTp+7fzIDOgBw/BUklAeQLvwUqmwkHxbFuDLBz+c+xzbv3h0w=="
  },
  "test/conftest.py": {
    "test.pytest_addoption": "I/hswVryIEYvZRBcFqkfRBxLP6eZCwZSbQuPclkOkjHw4MApBst5h7H0ejnMMe4bmwHXMXR5DCSxOMj/FcCnjQ==",
    "test.pytest_cmdline_preparse": "Lid4ojpVpBIIn1jpCe1fmfeSeAgYhmIu4K5huJGEMv87/LruGeI0PjWNyONDNXlZrL0CL0BPTKvXlOkEj3jIWA==",
    "test.pytest_collection": "a/3h30sLUHJ7xWsOrmfCInOOVXvm660dS+RxHwcDUcae2jHqDLRGhq/v8zgC+FSzN3pXaEaJ1QBJ9MNLOUBuCA==",
    "test.pytest_configure": "SjyTXdrRadJNWhVFYkAvXekjOqNtovwqKNizWD35oZ9XVmsdB/B+lQDzXNPZQ0D5flFpSEURUiGqIvifgEKZ9Q==",
    "test.pytest_import": "2ox6A0szNpUYZR5cJJRSW3OwEWR558BOiUMjC/OVkTPT++CF/OCgGSELCPL+7YHWaJGQKMw2rtCXmOMeSK5ZJA=="
  }
}