(kicad_symbol_lib (version 20211014) (generator kicad_symbol_editor)
  (symbol "ao7801" (in_bom yes) (on_board yes)
    (property "Reference" "U" (id 0) (at 3.81 5.08 0)
      (effects (font (size 1.27 1.27)))
    )
    (property "Value" "ao7801" (id 1) (at -1.27 5.08 0)
      (effects (font (size 1.27 1.27)))
    )
    (property "Footprint" "Package_TO_SOT_SMD:SOT-363_SC-70-6_Handsoldering" (id 2) (at -2.54 5.08 0)
      (effects (font (size 1.27 1.27)) hide)
    )
    (property "Datasheet" "" (id 3) (at -2.54 5.08 0)
      (effects (font (size 1.27 1.27)) hide)
    )
    (symbol "ao7801_0_1"
      (rectangle (start -3.81 3.81) (end 3.81 -3.81)
        (stroke (width 0.1524) (type default) (color 0 0 0 0))
        (fill (type none))
      )
    )
    (symbol "ao7801_1_1"
      (pin power_in line (at -6.35 2.54 0) (length 2.54)
        (name "S1" (effects (font (size 1.27 1.27))))
        (number "1" (effects (font (size 1.27 1.27))))
      )
      (pin input line (at -6.35 0 0) (length 2.54)
        (name "G1" (effects (font (size 1.27 1.27))))
        (number "2" (effects (font (size 1.27 1.27))))
      )
      (pin power_out line (at -6.35 -2.54 0) (length 2.54)
        (name "D2" (effects (font (size 1.27 1.27))))
        (number "3" (effects (font (size 1.27 1.27))))
      )
      (pin power_in line (at 6.35 -2.54 180) (length 2.54)
        (name "S2" (effects (font (size 1.27 1.27))))
        (number "4" (effects (font (size 1.27 1.27))))
      )
      (pin input line (at 6.35 0 180) (length 2.54)
        (name "G2" (effects (font (size 1.27 1.27))))
        (number "5" (effects (font (size 1.27 1.27))))
      )
      (pin power_out line (at 6.35 2.54 180) (length 2.54)
        (name "D1" (effects (font (size 1.27 1.27))))
        (number "6" (effects (font (size 1.27 1.27))))
      )
    )
  )
  (symbol "battery_21700" (pin_numbers hide) (pin_names (offset 0) hide) (in_bom yes) (on_board yes)
    (property "Reference" "BT" (id 0) (at 2.54 2.54 0)
      (effects (font (size 1.27 1.27)) (justify left))
    )
    (property "Value" "battery_21700" (id 1) (at 2.54 0 0)
      (effects (font (size 1.27 1.27)) (justify left))
    )
    (property "Footprint" "component:battery_21700_1xC" (id 2) (at 0 1.524 90)
      (effects (font (size 1.27 1.27)) hide)
    )
    (property "Datasheet" "~" (id 3) (at 0 1.524 90)
      (effects (font (size 1.27 1.27)) hide)
    )
    (property "ki_keywords" "batt voltage-source cell" (id 4) (at 0 0 0)
      (effects (font (size 1.27 1.27)) hide)
    )
    (property "ki_description" "lifepo4_3000mah" (id 5) (at 0 0 0)
      (effects (font (size 1.27 1.27)) hide)
    )
    (symbol "battery_21700_0_1"
      (rectangle (start -2.032 -1.397) (end 2.032 -1.651)
        (stroke (width 0) (type default) (color 0 0 0 0))
        (fill (type outline))
      )
      (rectangle (start -2.032 1.778) (end 2.032 1.524)
        (stroke (width 0) (type default) (color 0 0 0 0))
        (fill (type outline))
      )
      (rectangle (start -1.3208 -1.9812) (end 1.27 -2.4892)
        (stroke (width 0) (type default) (color 0 0 0 0))
        (fill (type outline))
      )
      (rectangle (start -1.3208 1.1938) (end 1.27 0.6858)
        (stroke (width 0) (type default) (color 0 0 0 0))
        (fill (type outline))
      )
      (polyline
        (pts
          (xy 0 -1.524)
          (xy 0 -1.27)
        )
        (stroke (width 0) (type default) (color 0 0 0 0))
        (fill (type none))
      )
      (polyline
        (pts
          (xy 0 -1.016)
          (xy 0 -0.762)
        )
        (stroke (width 0) (type default) (color 0 0 0 0))
        (fill (type none))
      )
      (polyline
        (pts
          (xy 0 -0.508)
          (xy 0 -0.254)
        )
        (stroke (width 0) (type default) (color 0 0 0 0))
        (fill (type none))
      )
      (polyline
        (pts
          (xy 0 0)
          (xy 0 0.254)
        )
        (stroke (width 0) (type default) (color 0 0 0 0))
        (fill (type none))
      )
      (polyline
        (pts
          (xy 0 0.508)
          (xy 0 0.762)
        )
        (stroke (width 0) (type default) (color 0 0 0 0))
        (fill (type none))
      )
      (polyline
        (pts
          (xy 0 1.778)
          (xy 0 2.54)
        )
        (stroke (width 0) (type default) (color 0 0 0 0))
        (fill (type none))
      )
      (polyline
        (pts
          (xy 0.254 2.667)
          (xy 1.27 2.667)
        )
        (stroke (width 0.254) (type default) (color 0 0 0 0))
        (fill (type none))
      )
      (polyline
        (pts
          (xy 0.762 3.175)
          (xy 0.762 2.159)
        )
        (stroke (width 0.254) (type default) (color 0 0 0 0))
        (fill (type none))
      )
    )
    (symbol "battery_21700_1_1"
      (pin passive line (at 0 5.08 270) (length 2.54)
        (name "+" (effects (font (size 1.27 1.27))))
        (number "1" (effects (font (size 1.27 1.27))))
      )
      (pin passive line (at 0 -5.08 90) (length 2.54)
        (name "-" (effects (font (size 1.27 1.27))))
        (number "2" (effects (font (size 1.27 1.27))))
      )
    )
  )
  (symbol "battery_26650" (pin_numbers hide) (pin_names (offset 0) hide) (in_bom yes) (on_board yes)
    (property "Reference" "BT" (id 0) (at 2.54 2.54 0)
      (effects (font (size 1.27 1.27)) (justify left))
    )
    (property "Value" "battery_26650" (id 1) (at 2.54 0 0)
      (effects (font (size 1.27 1.27)) (justify left))
    )
    (property "Footprint" "component:battery_26650_1xC" (id 2) (at 0 1.524 90)
      (effects (font (size 1.27 1.27)) hide)
    )
    (property "Datasheet" "~" (id 3) (at 0 1.524 90)
      (effects (font (size 1.27 1.27)) hide)
    )
    (property "ki_keywords" "batt voltage-source cell" (id 4) (at 0 0 0)
      (effects (font (size 1.27 1.27)) hide)
    )
    (property "ki_description" "lifepo4_3000mah" (id 5) (at 0 0 0)
      (effects (font (size 1.27 1.27)) hide)
    )
    (symbol "battery_26650_0_1"
      (rectangle (start -2.032 -1.397) (end 2.032 -1.651)
        (stroke (width 0) (type default) (color 0 0 0 0))
        (fill (type outline))
      )
      (rectangle (start -2.032 1.778) (end 2.032 1.524)
        (stroke (width 0) (type default) (color 0 0 0 0))
        (fill (type outline))
      )
      (rectangle (start -1.3208 -1.9812) (end 1.27 -2.4892)
        (stroke (width 0) (type default) (color 0 0 0 0))
        (fill (type outline))
      )
      (rectangle (start -1.3208 1.1938) (end 1.27 0.6858)
        (stroke (width 0) (type default) (color 0 0 0 0))
        (fill (type outline))
      )
      (polyline
        (pts
          (xy 0 -1.524)
          (xy 0 -1.27)
        )
        (stroke (width 0) (type default) (color 0 0 0 0))
        (fill (type none))
      )
      (polyline
        (pts
          (xy 0 -1.016)
          (xy 0 -0.762)
        )
        (stroke (width 0) (type default) (color 0 0 0 0))
        (fill (type none))
      )
      (polyline
        (pts
          (xy 0 -0.508)
          (xy 0 -0.254)
        )
        (stroke (width 0) (type default) (color 0 0 0 0))
        (fill (type none))
      )
      (polyline
        (pts
          (xy 0 0)
          (xy 0 0.254)
        )
        (stroke (width 0) (type default) (color 0 0 0 0))
        (fill (type none))
      )
      (polyline
        (pts
          (xy 0 0.508)
          (xy 0 0.762)
        )
        (stroke (width 0) (type default) (color 0 0 0 0))
        (fill (type none))
      )
      (polyline
        (pts
          (xy 0 1.778)
          (xy 0 2.54)
        )
        (stroke (width 0) (type default) (color 0 0 0 0))
        (fill (type none))
      )
      (polyline
        (pts
          (xy 0.254 2.667)
          (xy 1.27 2.667)
        )
        (stroke (width 0.254) (type default) (color 0 0 0 0))
        (fill (type none))
      )
      (polyline
        (pts
          (xy 0.762 3.175)
          (xy 0.762 2.159)
        )
        (stroke (width 0.254) (type default) (color 0 0 0 0))
        (fill (type none))
      )
    )
    (symbol "battery_26650_1_1"
      (pin passive line (at 0 5.08 270) (length 2.54)
        (name "+" (effects (font (size 1.27 1.27))))
        (number "1" (effects (font (size 1.27 1.27))))
      )
      (pin passive line (at 0 -5.08 90) (length 2.54)
        (name "-" (effects (font (size 1.27 1.27))))
        (number "2" (effects (font (size 1.27 1.27))))
      )
    )
  )
  (symbol "fan" (pin_names (offset 0)) (in_bom yes) (on_board yes)
    (property "Reference" "M" (id 0) (at 2.54 5.08 0)
      (effects (font (size 1.27 1.27)) (justify left))
    )
    (property "Value" "fan" (id 1) (at 2.54 -2.54 0)
      (effects (font (size 1.27 1.27)) (justify left top))
    )
    (property "Footprint" "Connector_PinHeader_2.54mm:PinHeader_1x02_P2.54mm_Vertical" (id 2) (at 0 0.254 0)
      (effects (font (size 1.27 1.27)) hide)
    )
    (property "Datasheet" "~" (id 3) (at 0 0.254 0)
      (effects (font (size 1.27 1.27)) hide)
    )
    (property "ki_keywords" "Fan Motor" (id 4) (at 0 0 0)
      (effects (font (size 1.27 1.27)) hide)
    )
    (property "ki_description" "Fan" (id 5) (at 0 0 0)
      (effects (font (size 1.27 1.27)) hide)
    )
    (property "ki_fp_filters" "PinHeader*P2.54mm* TerminalBlock*" (id 6) (at 0 0 0)
      (effects (font (size 1.27 1.27)) hide)
    )
    (symbol "fan_0_1"
      (arc (start -2.54 -0.508) (mid -0.0014 0.9048) (end 0 3.81)
        (stroke (width 0) (type default) (color 0 0 0 0))
        (fill (type none))
      )
      (polyline
        (pts
          (xy 0 -5.08)
          (xy 0 -4.572)
        )
        (stroke (width 0) (type default) (color 0 0 0 0))
        (fill (type none))
      )
      (polyline
        (pts
          (xy 0 -2.2352)
          (xy 0 -2.6416)
        )
        (stroke (width 0) (type default) (color 0 0 0 0))
        (fill (type none))
      )
      (polyline
        (pts
          (xy 0 4.2672)
          (xy 0 4.6228)
        )
        (stroke (width 0) (type default) (color 0 0 0 0))
        (fill (type none))
      )
      (polyline
        (pts
          (xy 0 4.572)
          (xy 0 5.08)
        )
        (stroke (width 0) (type default) (color 0 0 0 0))
        (fill (type none))
      )
      (circle (center 0 1.016) (radius 3.2512)
        (stroke (width 0.254) (type default) (color 0 0 0 0))
        (fill (type none))
      )
      (arc (start 0 3.81) (mid 0.0468 0.9315) (end 2.54 -0.508)
        (stroke (width 0) (type default) (color 0 0 0 0))
        (fill (type none))
      )
      (arc (start 2.54 -0.508) (mid 0 1.0618) (end -2.54 -0.508)
        (stroke (width 0) (type default) (color 0 0 0 0))
        (fill (type none))
      )
    )
    (symbol "fan_1_1"
      (pin passive line (at 0 7.62 270) (length 2.54)
        (name "+" (effects (font (size 1.27 1.27))))
        (number "1" (effects (font (size 1.27 1.27))))
      )
      (pin passive line (at 0 -5.08 90) (length 2.54)
        (name "-" (effects (font (size 1.27 1.27))))
        (number "2" (effects (font (size 1.27 1.27))))
      )
    )
  )
  (symbol "ipa029n06n" (pin_names hide) (in_bom yes) (on_board yes)
    (property "Reference" "Q" (id 0) (at 5.08 1.905 0)
      (effects (font (size 1.27 1.27)) (justify left))
    )
    (property "Value" "ipa029n06n" (id 1) (at 5.08 0 0)
      (effects (font (size 1.27 1.27)) (justify left))
    )
    (property "Footprint" "Package_TO_SOT_THT:TO-220F-3_Vertical" (id 2) (at 5.08 -5.08 0)
      (effects (font (size 1.27 1.27) italic) (justify left) hide)
    )
    (property "Datasheet" "" (id 3) (at 7.62 5.08 0)
      (effects (font (size 1.27 1.27)) (justify left) hide)
    )
    (property "ki_keywords" "N-Channel MOSFET Logic-Level" (id 4) (at 0 0 0)
      (effects (font (size 1.27 1.27)) hide)
    )
    (property "ki_description" "N-Channel MOSFET, 3.3V Logic Level, TO-220FP" (id 5) (at 0 0 0)
      (effects (font (size 1.27 1.27)) hide)
    )
    (property "ki_fp_filters" "TO?92*" (id 6) (at 0 0 0)
      (effects (font (size 1.27 1.27)) hide)
    )
    (symbol "ipa029n06n_0_1"
      (polyline
        (pts
          (xy 0.254 0)
          (xy -2.54 0)
        )
        (stroke (width 0) (type default) (color 0 0 0 0))
        (fill (type none))
      )
      (polyline
        (pts
          (xy 0.254 1.905)
          (xy 0.254 -1.905)
        )
        (stroke (width 0.254) (type default) (color 0 0 0 0))
        (fill (type none))
      )
      (polyline
        (pts
          (xy 0.762 -1.27)
          (xy 0.762 -2.286)
        )
        (stroke (width 0.254) (type default) (color 0 0 0 0))
        (fill (type none))
      )
      (polyline
        (pts
          (xy 0.762 0.508)
          (xy 0.762 -0.508)
        )
        (stroke (width 0.254) (type default) (color 0 0 0 0))
        (fill (type none))
      )
      (polyline
        (pts
          (xy 0.762 2.286)
          (xy 0.762 1.27)
        )
        (stroke (width 0.254) (type default) (color 0 0 0 0))
        (fill (type none))
      )
      (polyline
        (pts
          (xy 2.54 2.54)
          (xy 2.54 1.778)
        )
        (stroke (width 0) (type default) (color 0 0 0 0))
        (fill (type none))
      )
      (polyline
        (pts
          (xy 2.54 -2.54)
          (xy 2.54 0)
          (xy 0.762 0)
        )
        (stroke (width 0) (type default) (color 0 0 0 0))
        (fill (type none))
      )
      (polyline
        (pts
          (xy 0.762 -1.778)
          (xy 3.302 -1.778)
          (xy 3.302 1.778)
          (xy 0.762 1.778)
        )
        (stroke (width 0) (type default) (color 0 0 0 0))
        (fill (type none))
      )
      (polyline
        (pts
          (xy 1.016 0)
          (xy 2.032 0.381)
          (xy 2.032 -0.381)
          (xy 1.016 0)
        )
        (stroke (width 0) (type default) (color 0 0 0 0))
        (fill (type outline))
      )
      (polyline
        (pts
          (xy 2.794 0.508)
          (xy 2.921 0.381)
          (xy 3.683 0.381)
          (xy 3.81 0.254)
        )
        (stroke (width 0) (type default) (color 0 0 0 0))
        (fill (type none))
      )
      (polyline
        (pts
          (xy 3.302 0.381)
          (xy 2.921 -0.254)
          (xy 3.683 -0.254)
          (xy 3.302 0.381)
        )
        (stroke (width 0) (type default) (color 0 0 0 0))
        (fill (type none))
      )
      (circle (center 1.651 0) (radius 2.794)
        (stroke (width 0.254) (type default) (color 0 0 0 0))
        (fill (type none))
      )
      (circle (center 2.54 -1.778) (radius 0.254)
        (stroke (width 0) (type default) (color 0 0 0 0))
        (fill (type outline))
      )
      (circle (center 2.54 1.778) (radius 0.254)
        (stroke (width 0) (type default) (color 0 0 0 0))
        (fill (type outline))
      )
    )
    (symbol "ipa029n06n_1_1"
      (pin input line (at -5.08 0 0) (length 2.54)
        (name "G" (effects (font (size 1.27 1.27))))
        (number "1" (effects (font (size 1.27 1.27))))
      )
      (pin passive line (at 2.54 5.08 270) (length 2.54)
        (name "D" (effects (font (size 1.27 1.27))))
        (number "2" (effects (font (size 1.27 1.27))))
      )
      (pin passive line (at 2.54 -5.08 90) (length 2.54)
        (name "S" (effects (font (size 1.27 1.27))))
        (number "3" (effects (font (size 1.27 1.27))))
      )
    )
  )
  (symbol "lm2596_board" (in_bom yes) (on_board yes)
    (property "Reference" "U" (id 0) (at -1.27 -5.08 0)
      (effects (font (size 1.27 1.27)))
    )
    (property "Value" "lm2596_board" (id 1) (at -1.27 5.08 0)
      (effects (font (size 1.27 1.27)))
    )
    (property "Footprint" "component:lm2596_board" (id 2) (at -1.27 0 0)
      (effects (font (size 1.27 1.27)) hide)
    )
    (property "Datasheet" "" (id 3) (at -1.27 0 0)
      (effects (font (size 1.27 1.27)) hide)
    )
    (symbol "lm2596_board_0_1"
      (rectangle (start -7.62 3.81) (end 6.35 -2.54)
        (stroke (width 0.1524) (type default) (color 0 0 0 0))
        (fill (type background))
      )
    )
    (symbol "lm2596_board_1_1"
      (pin power_in line (at 8.89 2.54 180) (length 2.54)
        (name "in+" (effects (font (size 1.27 1.27))))
        (number "1" (effects (font (size 1.27 1.27))))
      )
      (pin power_in line (at 8.89 -1.27 180) (length 2.54)
        (name "in-" (effects (font (size 1.27 1.27))))
        (number "2" (effects (font (size 1.27 1.27))))
      )
      (pin power_out line (at -10.16 2.54 0) (length 2.54)
        (name "out+" (effects (font (size 1.27 1.27))))
        (number "3" (effects (font (size 1.27 1.27))))
      )
      (pin power_out line (at -10.16 -1.27 0) (length 2.54)
        (name "out-" (effects (font (size 1.27 1.27))))
        (number "4" (effects (font (size 1.27 1.27))))
      )
    )
  )
  (symbol "ltc2451" (in_bom yes) (on_board yes)
    (property "Reference" "U" (id 0) (at -6.35 8.89 0)
      (effects (font (size 1.27 1.27)))
    )
    (property "Value" "ltc2451" (id 1) (at 11.43 8.89 0)
      (effects (font (size 1.27 1.27)))
    )
    (property "Footprint" "Package_TO_SOT_SMD:TSOT-23-8_HandSoldering" (id 2) (at -17.78 12.7 0)
      (effects (font (size 1.27 1.27)) hide)
    )
    (property "Datasheet" "" (id 3) (at -17.78 12.7 0)
      (effects (font (size 1.27 1.27)) hide)
    )
    (property "ki_keywords" "analog to digital converter adc i2c twi single channel delta sigma 16 bit" (id 4) (at 0 0 0)
      (effects (font (size 1.27 1.27)) hide)
    )
    (property "ki_description" "Analog to Digital Converter, Single Channel, 16-Bit, 30/60 SPS, 2.7V to 5.5V, I2C interface, TSOT-23-6" (id 5) (at 0 0 0)
      (effects (font (size 1.27 1.27)) hide)
    )
    (property "ki_fp_filters" "TSOT?23*" (id 6) (at 0 0 0)
      (effects (font (size 1.27 1.27)) hide)
    )
    (symbol "ltc2451_1_1"
      (polyline
        (pts
          (xy -2.54 7.62)
          (xy 3.81 7.62)
          (xy 7.62 7.62)
          (xy 7.62 -7.62)
          (xy -2.54 -7.62)
          (xy -7.62 0)
          (xy -2.54 7.62)
        )
        (stroke (width 0.254) (type default) (color 0 0 0 0))
        (fill (type background))
      )
      (pin power_in line (at 2.54 -10.16 90) (length 2.54)
        (name "GND" (effects (font (size 1.27 1.27))))
        (number "1" (effects (font (size 1.27 1.27))))
      )
      (pin power_in line (at 0 -10.16 90) (length 2.54)
        (name "REF-" (effects (font (size 1.27 1.27))))
        (number "2" (effects (font (size 1.27 1.27))))
      )
      (pin power_in line (at 0 10.16 270) (length 2.54)
        (name "REF+" (effects (font (size 1.27 1.27))))
        (number "3" (effects (font (size 1.27 1.27))))
      )
      (pin power_in line (at 2.54 10.16 270) (length 2.54)
        (name "VCC" (effects (font (size 1.27 1.27))))
        (number "4" (effects (font (size 1.27 1.27))))
      )
      (pin passive line (at 2.54 -10.16 90) (length 2.54) hide
        (name "GND" (effects (font (size 1.27 1.27))))
        (number "5" (effects (font (size 1.27 1.27))))
      )
      (pin input line (at -10.16 0 0) (length 2.54)
        (name "IN" (effects (font (size 1.27 1.27))))
        (number "6" (effects (font (size 1.27 1.27))))
      )
      (pin input line (at 10.16 2.54 180) (length 2.54)
        (name "SCL" (effects (font (size 1.27 1.27))))
        (number "7" (effects (font (size 1.27 1.27))))
      )
      (pin bidirectional line (at 10.16 -2.54 180) (length 2.54)
        (name "SDA" (effects (font (size 1.27 1.27))))
        (number "8" (effects (font (size 1.27 1.27))))
      )
    )
  )
  (symbol "mcp3424_board" (in_bom yes) (on_board yes)
    (property "Reference" "U" (id 0) (at 5.08 2.54 0)
      (effects (font (size 1.27 1.27)))
    )
    (property "Value" "mcp3424_board" (id 1) (at -5.08 2.54 0)
      (effects (font (size 1.27 1.27)))
    )
    (property "Footprint" "component:mcp3424_board" (id 2) (at 0 0 0)
      (effects (font (size 1.27 1.27)) hide)
    )
    (property "Datasheet" "" (id 3) (at 0 0 0)
      (effects (font (size 1.27 1.27)) hide)
    )
    (symbol "mcp3424_board_0_1"
      (rectangle (start -12.7 0) (end 6.35 -22.86)
        (stroke (width 0.1524) (type default) (color 0 0 0 0))
        (fill (type none))
      )
    )
    (symbol "mcp3424_board_1_1"
      (pin power_in line (at -12.7 -5.08 0) (length 2.54)
        (name "Vcc" (effects (font (size 1.27 1.27))))
        (number "1" (effects (font (size 1.27 1.27))))
      )
      (pin power_in line (at 6.35 -12.7 180) (length 2.54)
        (name "CH3+" (effects (font (size 1.27 1.27))))
        (number "10" (effects (font (size 1.27 1.27))))
      )
      (pin power_in line (at 6.35 -10.16 180) (length 2.54)
        (name "CH1+" (effects (font (size 1.27 1.27))))
        (number "11" (effects (font (size 1.27 1.27))))
      )
      (pin power_in line (at 6.35 -7.62 180) (length 2.54)
        (name "CH1-" (effects (font (size 1.27 1.27))))
        (number "12" (effects (font (size 1.27 1.27))))
      )
      (pin power_in line (at 6.35 -5.08 180) (length 2.54)
        (name "CH2+" (effects (font (size 1.27 1.27))))
        (number "13" (effects (font (size 1.27 1.27))))
      )
      (pin power_in line (at 6.35 -2.54 180) (length 2.54)
        (name "CH2-" (effects (font (size 1.27 1.27))))
        (number "14" (effects (font (size 1.27 1.27))))
      )
      (pin power_in line (at -12.7 -7.62 0) (length 2.54)
        (name "GND" (effects (font (size 1.27 1.27))))
        (number "2" (effects (font (size 1.27 1.27))))
      )
      (pin input line (at -12.7 -10.16 0) (length 2.54)
        (name "SCL" (effects (font (size 1.27 1.27))))
        (number "3" (effects (font (size 1.27 1.27))))
      )
      (pin input line (at -12.7 -12.7 0) (length 2.54)
        (name "SDA" (effects (font (size 1.27 1.27))))
        (number "4" (effects (font (size 1.27 1.27))))
      )
      (pin input line (at -12.7 -15.24 0) (length 2.54)
        (name "AD0" (effects (font (size 1.27 1.27))))
        (number "5" (effects (font (size 1.27 1.27))))
      )
      (pin input line (at -12.7 -17.78 0) (length 2.54)
        (name "AD1" (effects (font (size 1.27 1.27))))
        (number "6" (effects (font (size 1.27 1.27))))
      )
      (pin power_in line (at 6.35 -20.32 180) (length 2.54)
        (name "CH4-" (effects (font (size 1.27 1.27))))
        (number "7" (effects (font (size 1.27 1.27))))
      )
      (pin power_in line (at 6.35 -17.78 180) (length 2.54)
        (name "CH4+" (effects (font (size 1.27 1.27))))
        (number "8" (effects (font (size 1.27 1.27))))
      )
      (pin power_in line (at 6.35 -15.24 180) (length 2.54)
        (name "CH3-" (effects (font (size 1.27 1.27))))
        (number "9" (effects (font (size 1.27 1.27))))
      )
    )
  )
  (symbol "mcp3550" (in_bom yes) (on_board yes)
    (property "Reference" "U" (id 0) (at 5.08 7.62 0)
      (effects (font (size 1.27 1.27)))
    )
    (property "Value" "mcp3550" (id 1) (at -2.54 7.62 0)
      (effects (font (size 1.27 1.27)))
    )
    (property "Footprint" "component:mcp3550" (id 2) (at -3.81 -2.54 0)
      (effects (font (size 1.27 1.27)) hide)
    )
    (property "Datasheet" "" (id 3) (at -3.81 -2.54 0)
      (effects (font (size 1.27 1.27)) hide)
    )
    (symbol "mcp3550_0_1"
      (rectangle (start -10.16 6.35) (end 8.89 -6.35)
        (stroke (width 0.1524) (type default) (color 0 0 0 0))
        (fill (type none))
      )
    )
    (symbol "mcp3550_1_1"
      (pin power_in line (at -12.7 3.81 0) (length 2.54)
        (name "Vref" (effects (font (size 1.27 1.27))))
        (number "1" (effects (font (size 1.27 1.27))))
      )
      (pin power_in line (at -12.7 1.27 0) (length 2.54)
        (name "Vin+" (effects (font (size 1.27 1.27))))
        (number "2" (effects (font (size 1.27 1.27))))
      )
      (pin power_in line (at -12.7 -1.27 0) (length 2.54)
        (name "Vin-" (effects (font (size 1.27 1.27))))
        (number "3" (effects (font (size 1.27 1.27))))
      )
      (pin power_in line (at -12.7 -3.81 0) (length 2.54)
        (name "Vss" (effects (font (size 1.27 1.27))))
        (number "4" (effects (font (size 1.27 1.27))))
      )
      (pin input line (at 11.43 -3.81 180) (length 2.54)
        (name "SCK" (effects (font (size 1.27 1.27))))
        (number "5" (effects (font (size 1.27 1.27))))
      )
      (pin input line (at 11.43 -1.27 180) (length 2.54)
        (name "SDO/RDYbar" (effects (font (size 1.27 1.27))))
        (number "6" (effects (font (size 1.27 1.27))))
      )
      (pin input line (at 11.43 1.27 180) (length 2.54)
        (name "CSbar" (effects (font (size 1.27 1.27))))
        (number "7" (effects (font (size 1.27 1.27))))
      )
      (pin power_in line (at 11.43 3.81 180) (length 2.54)
        (name "Vdd" (effects (font (size 1.27 1.27))))
        (number "8" (effects (font (size 1.27 1.27))))
      )
    )
  )
)
